{
    "Jedi Knight Revan": {
        "character_name": "Jedi Knight Revan",
        "min_stars_to_check": 7,
        "requirements": {
            "num_characters" : 5,
            "min_stars": 7,
            "characters": [
                {    
                    "name": "Mission Vao",
                    "gear_scale": [ 0, 0, 0, 0, 0, 0, 10, 15, 20, 20, 20, 20, 20, 20],
                    "stars_scale": [ 0, 0, 0, 0, 0, 0, 0, 0],
                    "zeta_scale": [0, 5, 5, 5]
                },
                {
                    "name": "Zaalbar",
                    "gear_scale": [ 0, 0, 0, 0, 0, 0, 10, 15, 20, 20, 20, 20, 20, 20],
                    "stars_scale": [ 0, 0, 0, 0, 0, 0, 0, 0],
                    "zeta_scale": [0, 5, 5, 5]
                },
                {
                    "name": "T3-M4",
                    "gear_scale": [ 0, 0, 0, 0, 0, 0, 10, 15, 20, 20, 20, 20, 20, 20],
                    "stars_scale": [ 0, 0, 0, 0, 0, 0, 0, 0],
                    "zeta_scale": [0, 0, 0, 0]
                },
                {
                    "name": "Jolee Bindo",
                    "gear_scale": [ 0, 0, 0, 0, 0, 0, 10, 15, 20, 20, 25, 25, 30, 30],
                    "stars_scale": [ 0, 0, 0, 0, 0, 0, 0, 0],
                    "zeta_scale": [0, 0, 0, 0]
                },
                {
                    "name" : "Bastila Shan",
                    "gear_scale": [ 0, 0, 0, 0, 0, 0, 10, 15, 20, 25, 30, 35, 50, 60],
                    "stars_scale": [ 0, 0, 0, 0, 0, 0, 0, 0],
                    "zeta_scale": [0, 0, 0, 0]
                }
            ]
        }
    },
    "Darth Revan": {
        "character_name": "Darth Revan",
        "min_stars_to_check": 7,
        "requirements": {
            "num_characters" : 5,
            "min_stars": 7,
            "characters": [
                {    
                    "name": "HK-47",
                    "gear_scale": [ 0, 0, 0, 0, 0, 0, 5, 10, 15, 20, 20, 20, 20, 20],
                    "stars_scale": [ 0, 0, 0, 0, 0, 0, 0, 0],
                    "zeta_scale": [0, 0, 0, 0]
                },
                {
                    "name": "Bastila Shan (Fallen)",
                    "gear_scale": [ 0, 0, 0, 0, 0, 0, 10, 15, 20, 25, 30, 35, 50, 60],
                    "stars_scale": [ 0, 0, 0, 0, 0, 0, 0, 0],
                    "zeta_scale": [0, 0, 0, 0]
                },
                {
                    "name": "Carth Onasi",
                    "gear_scale": [ 0, 0, 0, 0, 5, 5, 5, 10, 15, 15, 20, 20, 20, 20],
                    "stars_scale": [ 0, 0, 0, 0, 0, 0, 0, 0],
                    "zeta_scale": [0, 0, 0, 0]
                },
                {
                    "name": "Juhani",
                    "gear_scale": [ 0, 0, 0, 0, 5, 5, 5, 10, 15, 15, 20, 20, 20, 20],
                    "stars_scale": [ 0, 0, 0, 0, 0, 0, 0, 0],
                    "zeta_scale": [0, 0, 0, 0]
                },
                {
                    "name" : "Canderous Ordo",
                    "gear_scale": [ 0, 0, 0, 0, 5, 5, 5, 10, 15, 15, 20, 20, 20, 20],
                    "stars_scale": [ 0, 0, 0, 0, 0, 0, 0, 0],
                    "zeta_scale": [0, 0, 0, 0]
                }
            ]
        }
    },
    "Chewbacca": {
        "character_name": "Chewbacca",
        "min_stars_to_check": 7,
        "requirements": {
            "num_characters" : 5,
            "min_stars": 7,
            "faction": "profession_bountyhunter",
            "characters": [
                {    
                    "name": "Bossk",
                    "gear_scale": [ 0, 0, 0, 0, 0, 0, 0, 0, 5, 10, 15, 20, 25, 25],
                    "stars_scale": [ 0, 0, 0, 0, 0, 5, 5, 5],
                    "zeta_scale": [0, 10, 10, 10]
                },
                {
                    "name": "Dengar",
                    "gear_scale": [ 0, 0, 0, 0, 0, 0, 0, 0, 5, 7, 10, 15, 20, 20],
                    "stars_scale": [ 0, 0, 0, 0, 0, 4, 4, 4],
                    "zeta_scale": [0, 2, 2, 2]
                },
                {
                    "name": "Boba Fett",
                    "gear_scale": [ 0, 0, 0, 0, 0, 0, 0, 0, 5, 7, 10, 15, 20, 20],
                    "stars_scale": [ 0, 0, 0, 0, 0, 3, 3, 3],
                    "zeta_scale": [0, 2, 2, 2]
                },
                {
                    "name" : "Jango Fett",
                    "gear_scale": [ 0, 0, 0, 0, 0, 0, 0, 0, 5, 7, 10, 15, 20, 20],
                    "stars_scale": [ 0, 0, 0, 0, 0, 4, 4, 4],
                    "zeta_scale": [0, 2, 2, 2]
                },
                {
                    "name" : "Embo",
                    "gear_scale": [ 0, 0, 0, 0, 0, 0, 0, 0, 5, 7, 10, 15, 20, 20],
                    "stars_scale": [ 0, 0, 0, 0, 0, 3, 3, 3],
                    "zeta_scale": [0, 2, 2, 2]
                }
            ],
            "faction_characters_default": 
            {
                "gear_scale": [ 0, 0, 0, 0, 0, 0, 0, 0, 2, 3, 5, 10, 12, 15],
                "stars_scale": [ 0, 0, 0, 0, 0, 2, 2, 2],
                "zeta_scale": [0, 2, 2, 2]
            }
        }
    },
    "C-3PO": {
        "character_name": "C-3PO",
        "min_stars_to_check": 7,
        "requirements": {
            "num_characters" : 5,
            "min_stars": 7,
            "characters": [
                {    
                    "name": "Chief Chirpa",
                    "gear_scale": [ 0, 0, 0, 0, 0, 0, 0, 0, 5, 10, 15, 20, 25, 25],
                    "stars_scale": [ 0, 0, 0, 0, 0, 5, 5, 5],
                    "zeta_scale": [0, 10, 10, 10]
                },
                {
                    "name": "Paploo",
                    "gear_scale": [ 0, 0, 0, 0, 0, 0, 0, 0, 5, 7, 10, 15, 20, 20],
                    "stars_scale": [ 0, 0, 0, 0, 0, 3, 3, 3],
                    "zeta_scale": [0, 2, 2, 2]
                },
                {
                    "name": "Logray",
                    "gear_scale": [ 0, 0, 0, 0, 0, 0, 0, 0, 5, 7, 10, 15, 20, 20],
                    "stars_scale": [ 0, 0, 0, 0, 0, 4, 4, 4],
                    "zeta_scale": [0, 2, 2, 2]
                },
                {
                    "name": "Ewok Elder",
                    "gear_scale": [ 0, 0, 0, 0, 0, 0, 0, 0, 5, 7, 10, 15, 20, 20],
                    "stars_scale": [ 0, 0, 0, 0, 0, 3, 3, 3],
                    "zeta_scale": [0, 2, 2, 2]
                },
                {
                    "name" : "Ewok Scout",
                    "gear_scale": [ 0, 0, 0, 0, 0, 0, 0, 0, 2, 3, 5, 10, 12, 15],
                    "stars_scale": [ 0, 0, 0, 0, 0, 2, 2, 2],
                    "zeta_scale": [0, 2, 2, 2]
                },
                {
                    "name" : "Wicket",
                    "gear_scale": [ 0, 0, 0, 0, 0, 0, 0, 0, 5, 7, 10, 15, 20, 20],
                    "stars_scale": [ 0, 0, 0, 0, 0, 3, 3, 3],
                    "zeta_scale": [0, 2, 2, 2]
                },
                {
                    "name" : "Teebo",
                    "gear_scale": [ 0, 0, 0, 0, 0, 0, 0, 0, 2, 3, 5, 10, 12, 15],
                    "stars_scale": [ 0, 0, 0, 0, 0, 2, 2, 2],
                    "zeta_scale": [0, 2, 2, 2]
                }
            ]
        }
    },
    "Grand Admiral Thrawn": {
        "character_name": "Grand Admiral Thrawn",
        "min_stars_to_check": 7,
        "requirements": {
            "num_characters" : 5,
            "min_stars": 7,
            "characters": [
                {    
                    "name": "Hera Syndulla",
                    "gear_scale": [ 0, 0, 0, 0, 0, 0, 5, 10, 15, 20, 22, 25, 30, 35],
                    "stars_scale": [ 0, 0, 0, 0, 0, 5, 5, 5],
                    "zeta_scale": [0, 2, 2, 2]
                },
                {
                    "name": "Sabine Wren",
                    "gear_scale": [ 0, 0, 0, 0, 0, 0, 5, 10, 15, 20, 22, 25, 30, 35],
                    "stars_scale": [ 0, 0, 0, 0, 0, 5, 5, 5],
                    "zeta_scale": [0, 5, 5, 5]
                },
                {
                    "name": "Ezra Bridger",
                    "gear_scale": [ 0, 0, 0, 0, 0, 0, 5, 10, 15, 20, 22, 25, 30, 35],
                    "stars_scale": [ 0, 0, 0, 0, 0, 5, 5, 5],
                    "zeta_scale": [0, 5, 5, 5]
                },
                {
                    "name": "Chopper",
                    "gear_scale": [ 0, 0, 0, 0, 0, 0, 5, 10, 15, 20, 22, 25, 30, 35],
                    "stars_scale": [ 0, 0, 0, 0, 0, 5, 5, 5],
                    "zeta_scale": [0, 0, 0, 0]
                },
                {
                    "name" : "Garazeb \"Zeb\" Orrelios",
                    "gear_scale": [ 0, 0, 0, 0, 0, 0, 5, 10, 15, 20, 22, 25, 30, 35],
                    "stars_scale": [ 0, 0, 0, 0, 0, 5, 5, 5],
                    "zeta_scale": [0, 5, 5, 5]
                },
                {
                    "name" : "Kanan Jarrus",
                    "gear_scale": [ 0, 0, 0, 0, 0, 0, 5, 10, 15, 20, 22, 25, 30, 35],
                    "stars_scale": [ 0, 0, 0, 0, 0, 5, 5, 5],
                    "zeta_scale": [0, 5, 5, 5]
                }
            ]
        }
    },
    "Commander Luke Skywalker": {
        "character_name": "Commander Luke Skywalker",
        "min_stars_to_check": 7,
        "requirements": {
            "num_characters" : 5,
            "min_stars": 7,
            "characters": [
                {    
                    "name": "R2-D2",
                    "gear_scale": [ 0, 0, 0, 0, 0, 0, 10, 15, 20, 20, 20, 20, 20, 20],
                    "stars_scale": [ 0, 0, 0, 0, 0, 0, 0, 0],
                    "zeta_scale": [0, 5, 5, 5]
                },
                {
                    "name": "Obi-Wan Kenobi (Old Ben)",
                    "gear_scale": [ 0, 0, 0, 0, 0, 0, 10, 15, 20, 20, 20, 20, 20, 20],
                    "stars_scale": [ 0, 0, 0, 0, 0, 0, 0, 0],
                    "zeta_scale": [0, 5, 5, 5]
                },
                {
                    "name": "Princess Leia",
                    "gear_scale": [ 0, 0, 0, 0, 0, 0, 10, 15, 20, 20, 20, 20, 20, 20],
                    "stars_scale": [ 0, 0, 0, 0, 0, 0, 0, 0],
                    "zeta_scale": [0, 5, 5, 5]
                },
                {
                    "name": "Stormtrooper Han",
                    "gear_scale": [ 0, 0, 0, 0, 0, 0, 10, 15, 20, 20, 20, 20, 20, 20],
                    "stars_scale": [ 0, 0, 0, 0, 0, 0, 0, 0],
                    "zeta_scale": [0, 5, 5, 5]
                },
                {
                    "name" : "Luke Skywalker (Farmboy)",
                    "gear_scale": [ 0, 0, 0, 0, 0, 0, 10, 15, 20, 20, 20, 20, 20, 20],
                    "stars_scale": [ 0, 0, 0, 0, 0, 0, 0, 0],
                    "zeta_scale": [0, 5, 5, 5]
                }
            ]
        }
    },
    "BB-8": {
        "character_name": "BB-8",
        "min_stars_to_check": 7,
        "requirements": {
            "num_characters" : 5,
            "min_stars": 7,
            "faction": "affiliation_firstorder",
            "characters": [
                {
                    "name" : "Kylo Ren",
                    "gear_scale": [ 0, 0, 0, 0, 5, 10, 15, 20, 20, 30, 30, 30, 30, 30],
                    "stars_scale": [ 0, 0, 0, 0, 0, 0, 0, 0],
                    "zeta_scale": [0, 20, 20, 20]
                },
                {
                    "name" : "Kylo Ren (Unmasked)",
                    "gear_scale": [ 0, 0, 0, 0, 5, 10, 15, 20, 20, 20, 20, 20, 20, 20],
                    "stars_scale": [ 0, 0, 0, 0, 0, 0, 0, 0],
                    "zeta_scale": [0, 20, 25, 25]
                }
            ],
            "faction_characters_default": 
            {
                "gear_scale": [ 0, 0, 0, 0, 5, 10, 15, 20, 20, 20, 20, 20, 20, 20],
                "stars_scale": [ 0, 0, 0, 0, 0, 0, 0, 0],
                "zeta_scale": [0, 5, 5, 5]
            }
        }
    },
    "Rey (Jedi Training)": {
        "character_name": "Rey (Jedi Training)",
        "min_stars_to_check": 7,
        "requirements": {
            "num_characters" : 5,
            "min_stars": 7,
            "characters": [
                {    
                    "name": "BB-8",
                    "gear_scale": [ 0, 0, 0, 0, 0, 5, 10, 15, 20, 20, 20, 20, 20, 20],
                    "stars_scale": [ 0, 0, 0, 0, 0, 0, 0, 0],
                    "zeta_scale": [0, 5, 5, 5]
                },
                {
                    "name": "Veteran Smuggler Chewbacca",
                    "gear_scale": [ 0, 0, 0, 0, 0, 0, 5, 10, 15, 20, 20, 20, 20, 20],
                    "stars_scale": [ 0, 0, 0, 0, 0, 0, 0, 0],
                    "zeta_scale": [0, 5, 5, 5]
                },
                {
                    "name": "Veteran Smuggler Han Solo",
                    "gear_scale": [ 0, 0, 0, 0, 0, 5, 10, 15, 20, 20, 20, 20, 20, 20],
                    "stars_scale": [ 0, 0, 0, 0, 0, 0, 0, 0],
                    "zeta_scale": [0, 5, 5, 5]
                },
                {
                    "name": "Finn",
                    "gear_scale": [ 0, 0, 0, 0, 0, 0, 5, 15, 20, 20, 20, 20, 20, 20],
                    "stars_scale": [ 0, 0, 0, 0, 0, 0, 0, 0],
                    "zeta_scale": [0, 5, 5, 5]
                },
                {
                    "name" : "Rey (Scavenger)",
                    "gear_scale": [ 0, 0, 0, 0, 0, 0, 10, 15, 20, 20, 20, 20, 20, 20],
                    "stars_scale": [ 0, 0, 0, 0, 0, 0, 0, 0],
                    "zeta_scale": [0, 5, 5, 5]
                }
            ]
        }
    },
    "Padmé Amidala": {
        "character_name": "Padmé Amidala",
        "min_stars_to_check": 7,
        "requirements": {
            "num_characters" : 5,
            "min_stars": 7,
            "faction": "affiliation_separatist",
            "characters": [
                {    
                    "name": "General Grievous",
                    "gear_scale": [ 0, 0, 0, 0, 0, 0, 0, 0, 0, 0, 5, 10, 25, 40],
                    "stars_scale": [ 0, 0, 0, 0, 0, 3, 4, 5],
                    "zeta_scale": [0, 5, 7, 7]
                },
                {
                    "name": "B2 Super Battle Droid",
                    "gear_scale": [ 0, 0, 0, 0, 0, 0, 0, 0, 0, 5, 10, 10, 15, 20],
                    "stars_scale": [ 0, 0, 0, 0, 0, 3, 4, 5],
                    "zeta_scale": [0, 2, 2, 2]
                },
                {
                    "name": "Droideka",
                    "gear_scale": [ 0, 0, 0, 0, 0, 0, 0, 0, 0, 0, 5, 10, 15, 20],
                    "stars_scale": [ 0, 0, 0, 0, 0, 3, 4, 5],
                    "zeta_scale": [0, 2, 2, 2]
                },
                {
                    "name": "Nute Gunray",
                    "gear_scale": [ 0, 10, 10, 10, 10, 10, 15, 20, 25, 25, 30, 35, 35, 40],
                    "stars_scale": [ 0, 0, 0, 0, 0, 3, 4, 5],
                    "zeta_scale": [0, 5, 5, 5]
                },
                {
                    "name" : "Count Dooku",
                    "gear_scale": [ 0, 0, 0, 0, 0, 0, 0, 0, 0, 0, 5, 10, 15, 20],
                    "stars_scale": [ 0, 0, 0, 0, 0, 3, 4, 5],
                    "zeta_scale": [0, 3, 3, 3]
                },
                {
                    "name" : "Asajj Ventress",
                    "gear_scale": [ 0, 0, 0, 0, 0, 0, 0, 0, 0, 5, 10, 10, 15, 20],
                    "stars_scale": [ 0, 0, 0, 0, 0, 3, 4, 5],
                    "zeta_scale": [0, 10, 10, 10]
                },
                {
                    "name" : "B1 Battle Droid",
                    "gear_scale": [ 0, 0, 0, 0, 0, 0, 0, 0, 0, 0, 5, 10, 15, 20],
                    "stars_scale": [ 0, 0, 0, 0, 0, 3, 4, 5],
                    "zeta_scale": [0, 2, 2, 2]
                },
                {
                    "name" : "IG-100 MagnaGuard",
                    "gear_scale": [ 0, 0, 0, 0, 0, 0, 0, 0, 0, 0, 5, 10, 15, 20],
                    "stars_scale": [ 0, 0, 0, 0, 0, 3, 4, 5],
                    "zeta_scale": [0, 0, 0, 0]
                },
                {
                    "name" : "Geonosian Brood Alpha",
                    "gear_scale": [ 0, 0, 0, 0, 0, 0, 0, 0, 0, 15, 25, 30, 35, 50],
                    "stars_scale": [ 0, 0, 0, 0, 0, 3, 4, 5],
                    "zeta_scale": [0, 5, 10, 10]
                },
                {
                    "name" : "Geonosian Spy",
                    "gear_scale": [ 0, 0, 0, 0, 0, 0, 0, 5, 7, 10, 10, 15, 20, 25],
                    "stars_scale": [ 0, 0, 0, 0, 0, 3, 4, 5],
                    "zeta_scale": [0, 0, 0, 0]
                }
            ],
            "faction_characters_default": 
            {
                "gear_scale": [ 0, 0, 0, 0, 0, 0, 0, 0, 0, 0, 0, 5, 10, 15],
                "stars_scale": [ 0, 0, 0, 0, 0, 3, 4, 5],
                "zeta_scale": [0, 0, 0, 0]
            }
        }
    },
    "General Skywalker P2": {
        "character_name": "General Skywalker",
        "min_stars_to_check": 5,
        "requirements": {
            "num_characters" : 5,
            "min_stars": 7,
            "characters": [
                {    
                    "name": "Padmé Amidala",
                    "gear_scale": [ -100, -100, -100, -100, -100, -100, -100, -100, -20, -10, -5, 0, 15, 20],
                    "stars_scale": [ 0, 0, 0, 0, 0, 0, 0, 0],
                    "zeta_scale": [0, 5, 10, 10]
                },
                {
                    "name": "C-3PO",
                    "gear_scale": [ -100, -100, -100, -100, -100, -100, -100, -100, -20, -10, -5, 0, 15, 20],
                    "stars_scale": [ 0, 0, 0, 0, 0, 0, 0, 0],
                    "zeta_scale": [0, 2, 2, 2]
                },
                {
                    "name": "Shaak Ti",
                    "gear_scale": [ -100, -100, -100, -100, -100, -100, -100, -100, -20, -10, -5, 0, 15, 20],
                    "stars_scale": [ 0, 0, 0, 0, 0, 0, 0, 0],
                    "zeta_scale": [0, 0, 0, 0]
                },
                {
                    "name": "General Kenobi",
                    "gear_scale": [ -100, -100, -100, -100, -100, -100, -100, -100, -20, -10, -5, 0, 15, 20],
                    "stars_scale": [ 0, 0, 0, 0, 0, 0, 0, 0],
                    "zeta_scale": [0, 3, 3, 3]
                },
                {
                    "name" : "Ahsoka Tano",
                    "gear_scale": [ -100, -100, -100, -100, -100, -100, -100, -100, -20, -10, -5, 0, 15, 20],
                    "stars_scale": [ 0, 0, 0, 0, 0, 0, 0, 0],
                    "zeta_scale": [0, 3, 3, 3]
                }
            ]
        }
    },
    "General Skywalker P4": {
        "character_name": "General Skywalker",
        "min_stars_to_check": 5,
        "requirements": {
            "num_characters" : 5,
            "min_stars": 7,
            "characters": [
                {    
                    "name": "Asajj Ventress",
                    "gear_scale": [ 0, 0, 0, 0, 0, 0, 0, 0, 0, 0, -5, 0, 5, 25],
                    "stars_scale": [ 0, 0, 0, 0, 0, 0, 0, 0],
                    "zeta_scale": [0, 5, 7, 7]
                },
                {
                    "name": "B1 Battle Droid",
                    "gear_scale": [ 0, 0, 0, 0, 0, 0, 0, 0, 0, 0, -5, -2, 5, 25],
                    "stars_scale": [ 0, 0, 0, 0, 0, 0, 0, 0],
                    "zeta_scale": [0, 5, 5, 5]
                },
                {
                    "name": "B2 Super Battle Droid",
                    "gear_scale": [ 0, 0, 0, 0, 0, 0, 0, 0, 0, 0, -3, 5, 10, 15],
                    "stars_scale": [ 0, 0, 0, 0, 0, 0, 0, 0],
                    "zeta_scale": [0, 2, 2, 2]
                },
                {
                    "name": "Droideka",
                    "gear_scale": [ 0, 0, 0, 0, 0, 0, 0, 0, 0, 0, -5, 5, 10, 20],
                    "stars_scale": [ 0, 0, 0, 0, 0, 0, 0, 0],
                    "zeta_scale": [0, 10, 10, 10]
                },
                {
                    "name" : "IG-100 MagnaGuard",
                    "gear_scale": [ 0, 0, 0, 0, 0, 0, 0, 0, 0, 0, -3, 5, 10, 15],
                    "stars_scale": [ 0, 0, 0, 0, 0, 0, 0, 0],
                    "zeta_scale": [0, 0, 0, 0]
                }
            ]
        }
    }
}